%YAML 1.1
%TAG !u! tag:unity3d.com,2011:
--- !u!1045 &1
EditorBuildSettings:
  m_ObjectHideFlags: 0
  serializedVersion: 2
  m_Scenes:
  - enabled: 1
    path: Assets/Scenes/Main.unity
    guid: d1c3109bdb54ad54c8a2b2838528e640
  - enabled: 1
    path: Assets/Scenes/Combat.unity
    guid: a8a4965b62ac77f4ba1bb07f8503cb6e
  m_configObjects: {}
